Fitness tracker case study in R | Daniela Dula
…
 Joined the ids table with the sleepDay table:

SleepFiltered <- sleepDay %>%
    right_join(SleepSummaryIds, by = "Id")
as_tibble(SleepFiltered)

## # A tibble: 379 × 7
##            Id SleepDay              TotalSleepRe…¹ Total…² Total…³ uniqu…⁴     n
##         <dbl> <chr>                          <dbl>   <dbl>   <dbl> <chr>   <int>
##  1 1503960366 4/12/2016 12:00:00 AM              1     327     346 Id         25
##  2 1503960366 4/13/2016 12:00:00 AM              2     384     407 Id         25
##  3 1503960366 4/15/2016 12:00:00 AM              1     412     442 Id         25
##  4 1503960366 4/16/2016 12:00:00 AM              2     340     367 Id         25
##  5 1503960366 4/17/2016 12:00:00 AM              1     700     712 Id         25
##  6 1503960366 4/19/2016 12:00:00 AM              1     304     320 Id         25
##  7 1503960366 4/20/2016 12:00:00 AM              1     360     377 Id         25
##  8 1503960366 4/21/2016 12:00:00 AM              1     325     364 Id         25
##  9 1503960366 4/23/2016 12:00:00 AM              1     361     384 Id         25
## 10 1503960366 4/24/2016 12:00:00 AM              1     430     449 Id         25
## # … with 369 more rows, and abbreviated variable names ¹​TotalSleepRecords,
## #   ²​TotalMinutesAsleep, ³​TotalTimeInBed, ⁴​`unique("Id")`
…
WeightSummary <- weightLogInfo %>%
    group_by(Id) %>%
    summarize(meanWeightKg = mean(WeightKg), meanBMI = mean(BMI))

2. Merged tables, resulting in a table that summarizes data for each person.

Summary <- ActivitySummary %>%
    left_join(HeartrateSummary, by = "Id") %>%
    left_join(SleepSummary, by = "Id") %>%
    left_join(WeightSummary, by = "Id")

as_tibble(Summary)

## # A tibble: 33 × 13
##          Id meanT…¹ meanT…² meanS…³ meanC…⁴ meanBPM minBPM maxBPM medBPM meanS…⁵
##       <dbl>   <dbl>   <dbl>   <dbl>   <dbl>   <dbl>  <dbl>  <dbl>  <dbl>   <dbl>
##  1   1.50e9  12117.   7.81     848.   1816.    NA       NA     NA     NA    360.
##  2   1.62e9   5744.   3.91    1258.   1483.    NA       NA     NA     NA     NA 
##  3   1.64e9   7283.   5.30    1162.   2811.    NA       NA     NA     NA     NA 
##  4   1.84e9   2580.   1.71    1207.   1573.    NA       NA     NA     NA     NA 
##  5   1.93e9    916.   0.635   1317.   2173.    NA       NA     NA     NA     NA 
##  6   2.02e9  11371.   8.08    1113.   2510.    80.2     38    203     76     NA 
##  7   2.03e9   5567.   3.45     689.   1541.    93.8     63    125     95    506.
##  8   2.32e9   4717.   3.19    1220.   1724.    NA       NA     NA     NA     NA 
##  9   2.35e9   9520.   6.36     687.   2043.    76.7     49    195     73    447.
## 10   2.87e9   7556.   5.10    1097.   1917.    NA       NA     NA     NA     NA 
## # … with 23 more rows, 3 more variables: meanTimeInBed <dbl>,
## #   meanWeightKg <dbl>, meanBMI <dbl>, and abbreviated variable names
## #   ¹​meanTotalSteps, ²​meanTotalDistance, ³​meanSedentaryMinutes, ⁴​meanCalories,
## #   ⁵​meanSleepTime
…
